[{
      "relation": ["delegate_permission/common.handle_all_urls"],
      "target": {
        "namespace": "android_app",
        "package_name": "by.izipoint.betawebpos.twa",
        "sha256_cert_fingerprints": ["0C:60:4F:FF:B5:DA:56:62:6C:89:13:E2:09:84:A4:73:D6:64:C3:5C:62:3F:7A:91:2A:5A:E5:EF:B1:A9:7A:5D"]
      }
    }]
